%YAML 1.1
%TAG !u! tag:unity3d.com,2011:
--- !u!114 &11400000
MonoBehaviour:
  m_ObjectHideFlags: 0
  m_CorrespondingSourceObject: {fileID: 0}
  m_PrefabInstance: {fileID: 0}
  m_PrefabAsset: {fileID: 0}
  m_GameObject: {fileID: 0}
  m_Enabled: 1
  m_EditorHideFlags: 0
  m_Script: {fileID: 11500000, guid: cd37d39d1400e594384e66be4558baf7, type: 3}
  m_Name: TripleFan
  m_EditorClassIdentifier: 
  enemyWeight: 4
  enemySpeed: 150
  enemyPresenter: {fileID: 2553869355867792019, guid: ae99088c9b7d9ad42988e83fad699106,
    type: 3}
